{
  "from": 1,
  "to": 10,
  "total": 709127,
  "currentPage": 1,
  "totalPages": 70913,
  "queryTime": "0.300",
  "totalTime": "0.470",
  "partial": false,
  "canonicalUrl": "/v1/products?format=json&apiKey=a6xexy2znvn29m9mjfzfkhp5",
  "products": [
    {
      "sku": 16306454,
      "productId": 1788194,
      "name": "! (Bonus Track) (Japan) - CD",
      "source": "bestbuy",
      "type": "Music",
      "startDate": "2001-08-23",
      "new": false,
      "active": true,
      "lowPriceGuarantee": true,
      "activeUpdateDate": "2014-03-05T20:58:45",
      "regularPrice": 45.99,
      "salePrice": 45.99,
      "onSale": false,
      "planPrice": null,
      "priceWithPlan": [],
      "priceRestriction": null,
      "priceUpdateDate": "2014-03-05T20:58:45",
      "digital": false,
      "preowned": false,
      "outletCenter": null,
      "secondaryMarket": null,
      "frequentlyPurchasedWith": [],
      "salesRankShortTerm": null,
      "salesRankMediumTerm": null,
      "salesRankLongTerm": 120942,
      "bestSellingRank": null,
      "url": "http://www.bestbuy.com/site/-bonus-track-japan-cd/16306454.p?id=1788194&skuId=16306454&cmp=RMX&ky=2oWtMUdFSlPM9fSzxOlX04ZIKv03hHD2B",
      "spin360Url": null,
      "mobileUrl": "http://m.bestbuy.com/r/1788194/16306454/",
      "affiliateUrl": null,
      "addToCartUrl": "http://www.bestbuy.com/site/olspage.jsp?id=pcmcat152200050035&type=category&cmp=RMX&ky=2oWtMUdFSlPM9fSzxOlX04ZIKv03hHD2B&qvsids=16306454",
      "affiliateAddToCartUrl": null,
      "linkShareAffiliateUrl": "",
      "linkShareAffiliateAddToCartUrl": "",
      "upc": "4529408000949",
      "productTemplate": null,
      "categoryPath": [
        {
          "id": "cat00000",
          "name": "Best Buy"
        },
        {
          "id": "abcat0600000",
          "name": "Movies & Music"
        },
        {
          "id": "cat02001",
          "name": "Music"
        },
        {
          "id": "cat02010",
          "name": "Rock"
        },
        {
          "id": "cat02661",
          "name": "Alternative"
        }
      ],
      "lists": [

      ],
      "customerReviewCount": null,
      "customerReviewAverage": null,
      "format": "CD",
      "freeShipping": true,
      "freeShippingEligible": true,
      "inStoreAvailability": false,
      "inStoreAvailabilityText": "Store Pickup: Not Available",
      "inStoreAvailabilityUpdateDate": "2014-03-05T20:58:45",
      "itemUpdateDate": "2014-04-10T09:14:44",
      "onlineAvailability": true,
      "onlineAvailabilityText": "Backordered: Usually ships in 2-4 weeks",
      "onlineAvailabilityUpdateDate": "2014-03-06T02:15:20",
      "releaseDate": "2002-03-21",
      "shippingCost": 0.00,
      "shipping": [
        {
          "ground": 0.00,
          "secondDay": 8.99,
          "nextDay": 11.99,
          "vendorDelivery": ""
        }
      ],
      "specialOrder": false,
      "shortDescription": null,
      "class": "COMPACT DISC",
      "classId": 77,
      "subclass": "MISC.",
      "subclassId": 1013,
      "department": "VIDEO/COMPACT DISC",
      "departmentId": 8,
      "productFamilies": [

      ],
      "manufacturer": "ALLIANCE ENTERTAINMENT LLC",
      "image": "http://images.bestbuy.com/BestBuy_US/images/products/nonsku/default_music_l.jpg",
      "largeFrontImage": null,
      "mediumImage": null,
      "thumbnailImage": "http://images.bestbuy.com/BestBuy_US/images/products/nonsku/default_music_s.jpg",
      "largeImage": null,
      "alternateViewsImage": null,
      "angleImage": null,
      "backViewImage": null,
      "energyGuideImage": null,
      "leftViewImage": null,
      "accessoriesImage": null,
      "remoteControlImage": null,
      "rightViewImage": null,
      "topViewImage": null,
      "albumTitle": "! (Bonus Track) (Japan)",
      "artistName": "The Dismemberment Plan",
      "artistId": "BYPart29293",
      "originalReleaseDate": "1995-12-01",
      "parentalAdvisory": false,
      "mediaCount": 1,
      "monoStereo": "Stereo",
      "studioLive": "Studio",
      "inStorePickup": false,
      "friendsAndFamilyPickup": false,
      "homeDelivery": false,
      "quantityLimit": 3,
      "fulfilledBy": "BestBuy.com",
      "bundledIn": [

      ],
      "albumLabel": "Bad News Records",
      "genre": "Alternative",
      "dollarSavings": 0.00,
      "percentSavings": "0.0",
      "orderable": "Available",
      "shippingWeight": "0.25",
      "marketplace": false,
      "listingId": null,
      "sellerId": null,
      "shippingRestrictions": null
    }
    ]
}